No.,Code,Service Name (Notes),Rate,Qty.,Amount,Disc.,Net Amt.
21,1512,Kidney Function Test. ,259,11,2849.00,0,2849.00
22,1513,Liver Function Test. ,259,9,2331.00,0,2331.00
23,1492,Prothrombin Time (P.T.) ,127,2,254.00,0,254.00
24,1739,Rapid Blood Culture. ,230,2,460.00,0,460.00
